Lab 04 - La Quinta is Spanish for next to Dennyâ€™s, Pt. 1
…
## # A tibble: 0 x 6
## # ... with 6 variables: address <chr>, city <chr>, state <chr>, zip <chr>,
## #   longitude <dbl>, latitude <dbl>

Since this data set contains zero rows, there are no Dennyâ€™s locations outside the US

Exercise 6

Add a country column to the Dennyâ€™s data set:

dennys %>%
  mutate(country = "United States")

## # A tibble: 1,643 x 7
##    address                        city    state zip   longitude latitude country
##    <chr>                          <chr>   <chr> <chr>     <dbl>    <dbl> <chr>  
##  1 2900 Denali                    Anchor~ AK    99503    -150.      61.2 United~
##  2 3850 Debarr Road               Anchor~ AK    99508    -150.      61.2 United~
##  3 1929 Airport Way               Fairba~ AK    99701    -148.      64.8 United~
##  4 230 Connector Dr               Auburn  AL    36849     -85.5     32.6 United~
##  5 224 Daniel Payne Drive N       Birmin~ AL    35207     -86.8     33.6 United~
##  6 900 16th St S, Commons on Gree Birmin~ AL    35294     -86.8     33.5 United~
##  7 5931 Alabama Highway, #157     Cullman AL    35056     -86.9     34.2 United~
##  8 2190 Ross Clark Circle         Dothan  AL    36301     -85.4     31.2 United~
##  9 900 Tyson Rd                   Hope H~ AL    36043     -86.4     32.2 United~
## 10 4874 University Drive          Huntsv~ AL    35816     -86.7     34.7 United~
## # ... with 1,633 more rows
…
laquintas <- laquintas %>%
  filter(country == "United States")

Exercise 9

Determine which state has the most Dennyâ€™s.

dennys %>%
  #count the number of Denny's in each state, then arrange from most to least
  count(state, sort=TRUE) %>%
  #Join Denny's data with state data
  inner_join(states, by = c("state" = "abbreviation"))

## # A tibble: 51 x 4
##    state     n name            area
##    <chr> <int> <chr>          <dbl>
##  1 CA      403 California   163695.
##  2 TX      200 Texas        268596.
##  3 FL      140 Florida       65758.
##  4 AZ       83 Arizona      113990.
##  5 IL       56 Illinois      57914.
##  6 NY       56 New York      54555.
##  7 WA       49 Washington    71298.
##  8 OH       44 Ohio          44826.
##  9 MO       42 Missouri      69707.
## 10 PA       40 Pennsylvania  46054.
## # ... with 41 more rows

California has the most Dennyâ€™s (403), Delaware has the least (1)

Determine which state has the most La Quinta locations

laquintas %>%
  count(state, sort=TRUE)

## # A tibble: 48 x 2
##    state     n
##    <chr> <int>
##  1 TX      237
##  2 FL       74
##  3 CA       56
##  4 GA       41
##  5 TN       30
##  6 OK       29
##  7 LA       28
##  8 CO       27
##  9 NM       19
## 10 NY       19
## # ... with 38 more rows

Texas has the most La Quinta locations (237), Maine has the least (1)

The areas that have the greatest numbers of both Dennyâ€™s and La Quintas seem to be popular places to travel or places with large populations. This is not really surprising.

Exercise 10

dennys %>%
  count(state) %>%
  inner_join(states, by = c("state" = "abbreviation")) %>%
  mutate(per_sq_mile=n/area) %>% arrange(-per_sq_mile)

## # A tibble: 51 x 5
##    state     n name                     area per_sq_mile
##    <chr> <int> <chr>                   <dbl>       <dbl>
##  1 DC        2 District of Columbia     68.3    0.0293  
##  2 RI        5 Rhode Island           1545.     0.00324 
##  3 CA      403 California           163695.     0.00246 
##  4 CT       12 Connecticut            5543.     0.00216 
##  5 FL      140 Florida               65758.     0.00213 
##  6 MD       26 Maryland              12406.     0.00210 
##  7 NJ       10 New Jersey             8723.     0.00115 
##  8 NY       56 New York              54555.     0.00103 
##  9 IN       37 Indiana               36420.     0.00102 
## 10 OH       44 Ohio                  44826.     0.000982
## # ... with 41 more rows
…
